{
    "@context": "https://doi.org/10.5063/schema/codemeta-2.0",
    "@type": "SoftwareSourceCode",
    "license": "https://spdx.org/licenses/CC-BY-SA-4.0",
    "codeRepository": "https://gitlab.com/metasat/metasat-toolkit.git",
    "issueTracker": "https://gitlab.com/metasat/metasat-toolkit/-/issues",
    "name": "MetaSat",
    "description": "MetaSat is an open metadata vocabulary with example schemas used to describe space missions.",
    "developmentStatus": "active",
    "isPartOf": "https://schema.space/",
    "funder": {
        "@type": "Organization",
        "name": "Alfred P. Sloan Foundation"
    },
    "author": [
        {
            "@type": "Organization",
            "name": "MetaSat Collaboration",
            "parentOrganization": [ "Center for Astrophysics | Harvard & Smithsonian",  "Libre Space Foundation"]
        },
        {
            "@type": "Person",
            "@id": "https://orcid.org/0000-0003-2626-3688",
            "givenName": "Daina",
            "familyName": "Bouquin",
            "email": "daina.bouquin@cfa.harvard.edu",
            "affiliation": {
                "@type": "Organization",
                "name": "Center for Astrophysics | Harvard & Smithsonian"
            }
        },
        {
            "@type": "Person",
            "@id": "https://orcid.org/0000-0002-8152-0440",
            "givenName": "Nico",
            "familyName": "Carver",
            "email": "nicholas.carver@cfa.harvard.edu",
            "affiliation": {
                "@type": "Organization",
                "name": "Center for Astrophysics | Harvard & Smithsonian"
            }
        },
        {
            "@type": "Person",
            "@id": "https://orcid.org/0000-0001-6656-160X",
            "givenName": "Daniel",
            "familyName": "Chivvis",
            "email": "daniel.chivvis@cfa.harvard.edu",
            "affiliation": {
                "@type": "Organization",
                "name": "Center for Astrophysics | Harvard & Smithsonian"
            }
        },
        {
            "@type": "Person",
            "@id": "",
            "givenName": ["Alfredos", "Panagiotis"],
            "familyName": "Damkalis",
            "email": "",
            "affiliation": {
                "@type": "Organization",
                "name": "Libre Space Foundation"
            }
        },
        {
            "@type": "Person",
            "@id": "https://orcid.org/0000-0001-9891-4465",
            "givenName": "Katie",
            "familyName": "Frey",
            "email": "kfrey@cfa.harvard.edu",
            "affiliation": {
                "@type": "Organization",
                "name": "Center for Astrophysics | Harvard & Smithsonian"
            }
        },
        {
            "@type": "Person",
            "@id": "https://orcid.org/0000-0001-8669-5584",
            "givenName": "Pierros",
            "familyName": "Papadeas",
            "email": "",
            "affiliation": {
                "@type": "Organization",
                "name": "Libre Space Foundation"
            }
        },
        {
            "@type": "Person",
            "@id": "",
            "givenName": "Vasilis",
            "familyName": "Tsiligiannis",
            "email": "",
            "affiliation": {
                "@type": "Organization",
                "name": "Libre Space Foundation"
            }
        },
        {
            "@type": "Person",
            "@id": "",
            "givenName": "Allie",
            "familyName": "Williams",
            "email": "allie.williams@cfa.harvard.edu",
            "affiliation": {
                "@type": "Organization",
                "name": "Center for Astrophysics | Harvard & Smithsonian"
            }
        }
    ]
}
