{ 
    "@context": {
        "@version": 1.1,
        "@import": "https://gitlab.com/metasat/metasat-toolkit/-/raw/master/context.jsonld",
        "groundStationNetwork": "https://schema.space/metasat/telecommunicationsNetwork",
        "@vocab": "https://schema.space/metasat/"
    },
    "observation": {
        "type": "SatNOGS Observation", 
        "id": "https://network.satnogs.org/observations/1057993/",
        "schema:startTime": "2019-09-15T14:03:26.372-05:00",
        "schema:endTime": "2019-09-15T14:36:44.652-06:00",
        "status": {
            "schema:value": "Good",
            "schema:DateTime": "2019-09-15T16:23:24.821-09:00"
        },
        "spectrogram": {
            "schema:url": "https://network.satnogs.org/media/data_obs/1057993/waterfall_1057993_2019-09-30T11-57-10.png"
        },
        "observer": { 
            "id": "https://network.satnogs.org/users/pierros/",
            "@type": "schema:Person",
            "schema:url": "http://pierros.papadeas.gr/",
            "schema:name": "Pierros Papadeas",
            "schema:jobTitle": "Founder",
            "schema:affiliation": {
                "schema:url": "https://libre.space/",
                "schema:name": "Libre Space Foundation"
            }
        },
        "groundStation": {
            "id": "https://network.satnogs.org/stations/977/",
            "schema:name": "Archodiko",
            "schema:alternateName": "977 - Archodiko-UHF",
            "schema:image": "https://network.satnogs.org/media/ground_stations/20190922_182612.jpg",
            "schema:description": "Testing station for rpi4 with rtlsdr, Uputronics LNA and 433-eggbeater antenna",                
            "status": "Testing",
            "schema:dateCreated": "2019-09-09",
            "lastSeen": "0 minutes ago",
            "deviceUnderTest": {
                "@type": "xsd:Boolean",
                "@value": true
            },
            "software": "SatNOGS client",
            "schema:GeoCoordinates": {
                "schema:latitude": "36.971",
                "schema:longitude": "22.145",
                "schema:elevation": {
                    "schema:value": "5",
                    "schema:unitCode": "MTR"
                },
                "maidenheadLocator": "KM16bx"
            },
            "groundStationNetwork": { 
                "id": "https://network.satnogs.org/",
                "schema:name": "SatNOGS"
            },
            "owner": { 
                "id": "https://network.satnogs.org/users/pierros/",
                "@type": "schema:Person",
                "schema:url": "http://pierros.papadeas.gr/",
                "schema:name": "Pierros Papadeas",
                "schema:jobTitle": "Founder",
                "schema:affiliation": {
                    "schema:url": "https://libre.space/",
                    "schema:name": "Libre Space Foundation"
                }
            },
            "equipment": {
                "antenna": {
                    "type": "UHF Eggbeater",
                    "signalBandwidth": {
                        "frequencyBand": "UHF",
                        "frequency": {
                            "range": "430.000-440.000 mHz",
                            "minimum": {
                                "schema:value": "430.000",
                                "schema:unitCode": "MHZ"
                            },
                            "maximum": {
                                "schema:value": "440.000",
                                "schema:unitCode": "MHZ"
                            }
                        }
                    }                       
                },
                "downlink": {
                    "radioReceiver": {
                        "signalBandwidth": {
                            "frequencyBand": "UHF",
                            "frequency": {
                                "range": "460.000-470.000 mHz",
                                "minimum": {
                                    "schema:value": "460.000",
                                    "schema:unitCode": "MHZ"
                                },
                                "maximum": {
                                    "schema:value": "470.000",
                                    "schema:unitCode": "MHZ"
                                }
                            }      
                        }                          
                    },
                    "lowNoiseAmplifier": {
                        "signalBandwidth": {
                            "frequency": {
                                "range": "430.000-440.000 mHz",
                                "minimum": {
                                    "schema:value": "430.000",
                                    "schema:unitCode": "MHZ"
                                },
                                "maximum": {
                                    "schema:value": "440.000",
                                    "schema:unitCode": "MHZ"
                                }
                            } 
                    },
                    "filter": {
                        "type": "UHF",
                        "signalBandwidth": {
                            "frequency": {
                                "range": "430.000-440.000 mHz",
                                "minimum": {
                                    "schema:value": "430.000",
                                    "schema:unitCode": "MHZ"
                                },
                                "maximum": {
                                    "schema:value": "440.000",
                                    "schema:unitCode": "MHZ"
                                }
                            }     
                        } 
                    }
                }                    
            }                
        }
        },
        "spacecraft": {
            "id": "https://db.satnogs.org/satellite/25397/",
            "schema:name": "TECHSAT 1B",
            "schema:alternateName": ["25397 - TECHSAT 1B", "Gurwin 1B", "Gurwin OSCAR 32", "GO 32", "25397"],
            "schema:Country": "Israel",
            "schema:image": "https://db.satnogs.org/media/satellites/gurwinIIb.gif",
            "type": "Imaging Satellite"
        }
    }
}
